\relax 
\@writefile{lof}{\contentsline {figure}{\numberline {1}{\ignorespaces  Simulator Main Menu}}{3}}
\newlabel{fig:1}{{1}{3}}
\@writefile{lof}{\contentsline {figure}{\numberline {2}{\ignorespaces  Team Selection and Salary Cap Menu}}{4}}
\newlabel{fig:2}{{2}{4}}
\@writefile{lof}{\contentsline {figure}{\numberline {3}{\ignorespaces  Roster Selection Menu}}{4}}
\newlabel{fig:3}{{3}{4}}
\@writefile{lof}{\contentsline {figure}{\numberline {4}{\ignorespaces  Draft Menu}}{5}}
\newlabel{fig:4}{{4}{5}}
\@writefile{lof}{\contentsline {figure}{\numberline {5}{\ignorespaces  Team Offensive Index Statistics}}{5}}
\newlabel{fig:5}{{5}{5}}
\@writefile{lof}{\contentsline {figure}{\numberline {6}{\ignorespaces  Regular Season Simulation Results}}{6}}
\newlabel{fig:6}{{6}{6}}
\@writefile{lof}{\contentsline {figure}{\numberline {7}{\ignorespaces  Playoff Results}}{6}}
\newlabel{fig:7}{{7}{6}}
\@writefile{lof}{\contentsline {figure}{\numberline {8}{\ignorespaces  End of Simulation}}{7}}
\newlabel{fig:8}{{8}{7}}
