\relax 
\providecommand\hyper@newdestlabel[2]{}
\providecommand\HyperFirstAtBeginDocument{\AtBeginDocument}
\HyperFirstAtBeginDocument{\ifx\hyper@anchor\@undefined
\global\let\oldcontentsline\contentsline
\gdef\contentsline#1#2#3#4{\oldcontentsline{#1}{#2}{#3}}
\global\let\oldnewlabel\newlabel
\gdef\newlabel#1#2{\newlabelxx{#1}#2}
\gdef\newlabelxx#1#2#3#4#5#6{\oldnewlabel{#1}{{#2}{#3}}}
\AtEndDocument{\ifx\hyper@anchor\@undefined
\let\contentsline\oldcontentsline
\let\newlabel\oldnewlabel
\fi}
\fi}
\global\let\hyper@last\relax 
\gdef\HyperFirstAtBeginDocument#1{#1}
\providecommand\HyField@AuxAddToFields[1]{}
\providecommand\HyField@AuxAddToCoFields[2]{}
\citation{BeckerWatts1995,Rocca2010}
\citation{Watts2011}
\citation{LeanEtAl,RakesCasey2002,NCES200,NetDay2005}
\citation{Pasin2011,kamla2011,Siddiqui2008,Shellman2006}
\citation{HakesSaur}
\bibstyle{chicago}
\bibdata{MoneyballSources}
\bibcite{BeckerWatts1995}{{1}{1995}{{Becker and Watts}}{{Becker and Watts}}}
\bibcite{NetDay2005}{{2}{2005}{{Day}}{{Day}}}
\bibcite{HakesSaur}{{3}{2006}{{Hakes and Sauer}}{{Hakes and Sauer}}}
\bibcite{LeanEtAl}{{4}{2006}{{Lean et~al.}}{{Lean, Moizer, Towler, and Abbey}}}
\bibcite{NCES200}{{5}{2000}{{{National Center for Education Statistics (NCES)}}}{{{National Center for Education Statistics (NCES)}}}}
\bibcite{Pasin2011}{{6}{2011}{{Pasin and Giroux}}{{Pasin and Giroux}}}
\bibcite{RakesCasey2002}{{7}{2002}{{Rakes and Casey}}{{Rakes and Casey}}}
\bibcite{Rocca2010}{{8}{2010}{{Rocca}}{{Rocca}}}
\bibcite{Shellman2006}{{9}{2006}{{Shellman and Turan}}{{Shellman and Turan}}}
\bibcite{Siddiqui2008}{{10}{2008}{{Siddiqui et~al.}}{{Siddiqui, Khan, and Akhtar}}}
\bibcite{kamla2011}{{11}{2011}{{Van~Wyk}}{{Van~Wyk}}}
\bibcite{Watts2011}{{12}{2011}{{Watts and Schaur}}{{Watts and Schaur}}}
