\begin{thebibliography}{}

\bibitem[\protect\citeauthoryear{Rocca}{Rocca}{2010}]{Rocca2010}
Rocca, K. (2010).
\newblock Student participation in the college classrom: An extended
  multidisciplinary literature review.
\newblock {\em Communication Education\/}~{\em 59}, 185--213.

\end{thebibliography}
