\relax 
\providecommand\hyper@newdestlabel[2]{}
\providecommand\HyperFirstAtBeginDocument{\AtBeginDocument}
\HyperFirstAtBeginDocument{\ifx\hyper@anchor\@undefined
\global\let\oldcontentsline\contentsline
\gdef\contentsline#1#2#3#4{\oldcontentsline{#1}{#2}{#3}}
\global\let\oldnewlabel\newlabel
\gdef\newlabel#1#2{\newlabelxx{#1}#2}
\gdef\newlabelxx#1#2#3#4#5#6{\oldnewlabel{#1}{{#2}{#3}}}
\AtEndDocument{\ifx\hyper@anchor\@undefined
\let\contentsline\oldcontentsline
\let\newlabel\oldnewlabel
\fi}
\fi}
\global\let\hyper@last\relax 
\gdef\HyperFirstAtBeginDocument#1{#1}
\providecommand*\HyPL@Entry[1]{}
\HyPL@Entry{0<</S/D>>}
\citation{lewis2004moneyball}
\HyPL@Entry{1<</S/D>>}
\@writefile{toc}{\contentsline {section}{\numberline {1}Introduction}{1}{section.1}}
\newlabel{sec:INT}{{1}{1}{Introduction}{section.1}{}}
\citation{becker1995teaching}
\citation{porter2004review}
\citation{rascher2005oakland}
\citation{einolf2005econfantasy}
\citation{baird2005player}
\citation{hakes2006economic}
\citation{scully1974pay}
\citation{sommers1982pay}
\citation{krautmann1999s}
\citation{berri2004stars}
\@writefile{toc}{\contentsline {section}{\numberline {2}Literature Review}{2}{section.2}}
\newlabel{sec:LIT}{{2}{2}{Literature Review}{section.2}{}}
\citation{mchugh2009batter}
\citation{mateer201610}
\citation{rocca2010student}
\citation{watts2011teaching}
\citation{becker2006teaching}
\@writefile{toc}{\contentsline {section}{\numberline {3}Project Overview}{3}{section.3}}
\citation{hakes2006economic}
\@writefile{toc}{\contentsline {section}{\numberline {4}The Project}{7}{section.4}}
\newlabel{sec:pro}{{4}{7}{The Project}{section.4}{}}
\@writefile{toc}{\contentsline {section}{\numberline {5}Implementing the Project in Class}{14}{section.5}}
\newlabel{sec:imp}{{5}{14}{Implementing the Project in Class}{section.5}{}}
\@writefile{toc}{\contentsline {subsection}{\numberline {5.1}Illustrative Exercise - Approximately 2 $\frac  {1}{2}$ Hours}{15}{subsection.5.1}}
\newlabel{sub:ill}{{5.1}{15}{Illustrative Exercise - Approximately 2 $\frac {1}{2}$ Hours}{subsection.5.1}{}}
\@writefile{toc}{\contentsline {subsection}{\numberline {5.2}In-Class Lab - Approximately 5 Hours In-Class}{15}{subsection.5.2}}
\newlabel{sub:lab}{{5.2}{15}{In-Class Lab - Approximately 5 Hours In-Class}{subsection.5.2}{}}
\@writefile{toc}{\contentsline {subsection}{\numberline {5.3}Semester Project - Approximately 2 Hours In-Class}{16}{subsection.5.3}}
\newlabel{sub:pro}{{5.3}{16}{Semester Project - Approximately 2 Hours In-Class}{subsection.5.3}{}}
\@writefile{toc}{\contentsline {section}{\numberline {6}Using the Simulator}{17}{section.6}}
\newlabel{sec:sim}{{6}{17}{Using the Simulator}{section.6}{}}
\@writefile{toc}{\contentsline {section}{\numberline {7}Conclusion}{19}{section.7}}
\newlabel{sec:CON}{{7}{19}{Conclusion}{section.7}{}}
\bibstyle{apalike}
\bibdata{bib}
\bibcite{baird2005player}{{1}{2005}{{Baird et~al.}}{{}}}
\bibcite{becker2006teaching}{{2}{2006}{{Becker et~al.}}{{}}}
\bibcite{becker1995teaching}{{3}{1995}{{Becker and Watts}}{{}}}
\bibcite{berri2004stars}{{4}{2004}{{Berri et~al.}}{{}}}
\bibcite{einolf2005econfantasy}{{5}{2005}{{Einolf}}{{}}}
\bibcite{hakes2006economic}{{6}{2006}{{Hakes and Sauer}}{{}}}
\bibcite{krautmann1999s}{{7}{1999}{{Krautmann}}{{}}}
\bibcite{lewis2004moneyball}{{8}{2004}{{Lewis}}{{}}}
\bibcite{mateer201610}{{9}{2016}{{Mateer et~al.}}{{}}}
\bibcite{mchugh2009batter}{{10}{2009}{{McHugh}}{{}}}
\bibcite{porter2004review}{{11}{2004}{{Porter et~al.}}{{}}}
\bibcite{rascher2005oakland}{{12}{2005}{{Rascher}}{{}}}
\bibcite{rocca2010student}{{13}{2010}{{Rocca}}{{}}}
\bibcite{scully1974pay}{{14}{1974}{{Scully}}{{}}}
\bibcite{sommers1982pay}{{15}{1982}{{Sommers and Quinton}}{{}}}
\bibcite{watts2011teaching}{{16}{2011}{{Watts and Schaur}}{{}}}
\@writefile{lof}{\contentsline {figure}{\numberline {1}{\ignorespaces  Simulator Main Menu\relax }}{21}{figure.caption.2}}
\providecommand*\caption@xref[2]{\@setref\relax\@undefined{#1}}
\newlabel{fig:1}{{1}{21}{Simulator Main Menu\relax }{figure.caption.2}{}}
\@writefile{lof}{\contentsline {figure}{\numberline {2}{\ignorespaces  Team Selection and Salary Cap Menu\relax }}{22}{figure.caption.3}}
\newlabel{fig:2}{{2}{22}{Team Selection and Salary Cap Menu\relax }{figure.caption.3}{}}
\@writefile{lof}{\contentsline {figure}{\numberline {3}{\ignorespaces  Roster Selection Menu\relax }}{22}{figure.caption.4}}
\newlabel{fig:3}{{3}{22}{Roster Selection Menu\relax }{figure.caption.4}{}}
\@writefile{lof}{\contentsline {figure}{\numberline {4}{\ignorespaces  Draft Menu\relax }}{23}{figure.caption.5}}
\newlabel{fig:4}{{4}{23}{Draft Menu\relax }{figure.caption.5}{}}
\@writefile{lof}{\contentsline {figure}{\numberline {5}{\ignorespaces  Team Offensive Index Statistics\relax }}{23}{figure.caption.6}}
\newlabel{fig:5}{{5}{23}{Team Offensive Index Statistics\relax }{figure.caption.6}{}}
\@writefile{lof}{\contentsline {figure}{\numberline {6}{\ignorespaces  Regular Season Simulation Results\relax }}{24}{figure.caption.7}}
\newlabel{fig:6}{{6}{24}{Regular Season Simulation Results\relax }{figure.caption.7}{}}
\@writefile{lof}{\contentsline {figure}{\numberline {7}{\ignorespaces  Playoff Results\relax }}{24}{figure.caption.8}}
\newlabel{fig:7}{{7}{24}{Playoff Results\relax }{figure.caption.8}{}}
\@writefile{lof}{\contentsline {figure}{\numberline {8}{\ignorespaces  End of Simulation\relax }}{25}{figure.caption.9}}
\newlabel{fig:8}{{8}{25}{End of Simulation\relax }{figure.caption.9}{}}
