\BOOKMARK [1][-]{section.1}{Introduction}{}% 1
\BOOKMARK [1][-]{section.2}{Literature\040Review}{}% 2
\BOOKMARK [1][-]{section.3}{Project\040Overview}{}% 3
\BOOKMARK [1][-]{section.4}{The\040Project}{}% 4
\BOOKMARK [1][-]{section.5}{Implementing\040the\040Project\040in\040Class}{}% 5
\BOOKMARK [2][-]{subsection.5.1}{Illustrative\040Exercise\040-\040Approximately\0402\04012\040Hours}{section.5}% 6
\BOOKMARK [2][-]{subsection.5.2}{In-Class\040Lab\040-\040Approximately\0405\040Hours\040In-Class}{section.5}% 7
\BOOKMARK [2][-]{subsection.5.3}{Semester\040Project\040-\040Approximately\0402\040Hours\040In-Class}{section.5}% 8
\BOOKMARK [1][-]{section.6}{Using\040the\040Simulator}{}% 9
\BOOKMARK [1][-]{section.7}{Conclusion}{}% 10
